1	732.90283
2	625.2426
3	627.9733
4	647.2918
5	719.0225
6	675.8684
7	642.2162
8	614.2035
9	658.5009
10	753.8107
11	756.09546
12	724.70795
13	695.44965
14	895.82306
15	851.30475
16	978.43475
17	929.6792
18	942.08997
19	1017.5009
20	1009.26733
21	961.78076
22	1001.4596
23	864.8521
24	949.5749
25	885.55273
26	913.6406
27	1003.9872
28	966.212
29	983.958
30	967.20776
31	937.7596
32	966.62067
33	1185.8438
34	943.4421
35	967.2738
36	953.32544
37	1003.7404
38	1089.0905
39	1112.9358
40	1075.3344
41	1155.2296
42	1113.4943
43	1029.0176
44	993.76337
45	1062.7695
46	931.0295
47	930.6574
48	964.5145
49	837.53156
