1	732.9028389971089
2	625.2386166965606
3	627.9720298692574
4	647.291780327093
5	719.0213154971302
6	675.8658225108225
7	642.2202087053962
8	614.2050839354016
9	658.4954974271012
10	753.8119569375376
11	756.0968821906455
12	724.7029486002754
13	695.4506043838609
14	895.8209212039463
15	851.30637466417
16	978.4318308004922
17	929.6730976691097
18	942.0877072869903
19	1017.5110924377508
20	1009.2722115871235
21	961.7856403128035
22	1001.4636983412988
23	864.8557520527459
24	949.577024946614
25	885.5464679449861
26	913.6268424496942
27	1003.9834284746414
28	966.2082138106591
29	983.9576225291091
30	967.2178679143144
31	937.7565454917581
32	966.6310460577389
33	1185.8446128462897
34	943.441672114756
35	967.2641927413799
36	953.3222571168068
37	1003.7576668390499
38	1089.0862600542412
39	1112.9491046609544
40	1075.3309324682282
41	1155.2174934154223
42	1113.4804198640368
43	1029.027355439242
44	993.7584634736332
45	1062.757766337585
46	931.0258730893539
47	930.6566891613544
48	964.5128649434014
49	837.5311620260968
